apg => jessie-kfreebsd 2.2.3.dfsg.1-2 squeeze 2.2.3.dfsg.1-2 wheezy 2.2.3.dfsg.1-2 jessie 2.2.3.dfsg.1-2 stretch 2.2.3.dfsg.1-2 sid 2.2.3.dfsg.1-2 sid 2.2.3.dfsg.1-2+b1
asciidoctor => wheezy-backports 0.1.3-1~bpo70+1 oldstable 0.1.4-3 oldstable-kfreebsd 0.1.4-3 jessie-backports 1.5.4-1~bpo8+1 stable 1.5.4-2 stretch-backports 1.5.6.2-2~bpo9+1 testing 1.5.7.1-1 unstable 1.5.7.1-1
autotools-dev => squeeze 20100122.1 wheezy 20120608.1 jessie 20140911.1 sid 20140911.1
bash-completion => squeeze 1:1.2-3 wheezy 1:2.0-1 jessie-kfreebsd 1:2.1-4 jessie 1:2.1-4 stretch 1:2.1-4.2 sid 1:2.1-4.2
bc => oldoldstable 1.06.95-9 oldstable 1.06.95-9+b3 stable 1.07.1-2+b1 testing 1.07.1-2+b2 unstable 1.07.1-2+b2
bison => squeeze 1:2.4.1.dfsg-3 wheezy 1:2.5.dfsg-2.1 jessie-kfreebsd 2:3.0.2.dfsg-2 jessie 2:3.0.2.dfsg-2 stretch 2:3.0.4.dfsg-1 sid 2:3.0.4.dfsg-1
chrpath => oldoldstable 0.16-1 oldstable 0.16-2+b1 stable 0.16-2+b1 unstable 0.16-2+b1 testing 0.16-2+b1
clustalw => etch/non-free 1.83-1.2 lenny/non-free 2.0.9-1 squeeze/non-free 2.0.12-1 wheezy 2.1+lgpl-2 sid 2.1+lgpl-2 sid 2.1+lgpl-2+b1
cython => oldstable 0.15.1-2 wheezy-backports 0.19.1+git34-gac3e3a2-1~bpo70+1 stable 0.21.1-1 jessie-backports 0.23.2+git16-ga8fbae1-1~bpo8+1 testing 0.25.2~b0-2 unstable 0.25.2~b0-2
cython3 => wheezy-backports 0.19.1+git34-gac3e3a2-1~bpo70+1 stable 0.21.1-1 jessie-backports 0.23.2+git16-ga8fbae1-1~bpo8+1 testing 0.25.2~b0-2 unstable 0.25.2~b0-2
d-shlibs => oldoldstable 0.58 oldstable 0.79 stable 0.84 unstable 0.86 testing 0.86
debhelper => squeeze 8.0.0 squeeze-backports 9.20120909~bpo60+1 wheezy 9.20120909 jessie 9.20120909 sid 9.20130518
dh-autoreconf => squeeze 2 wheezy 7 sid 7
dh-python => wheezy-backports 1.20140511-1~bpo70+1 stable-kfreebsd 1.20141111-2 stable 1.20141111-2 jessie-backports 2.20160818~bpo8+1 testing 2.20160818 unstable 2.20160818
dpkg => squeeze 1.15.8.12 wheezy 1.16.8 sid 1.16.8
dpkg-dev => squeeze 1.15.8.13 squeeze-backports 1.16.1.2~bpo60+1 wheezy 1.16.9 sid 1.16.9
file-rc => oldoldstable 0.8.15 oldstable 0.8.16 oldstable-kfreebsd 0.8.16 stable 0.8.18
frozen-bubble => etch 2.1.0-1 lenny 2.1.0-2 lenny 2.1.0-2+b1 squeeze 2.2.0-2 wheezy 2.2.0-2 sid 2.2.0-2 wheezy 2.2.0-2+b1 sid 2.2.0-2+b1
gcc-4.6 => wheezy 4.6.3-11 sid 4.6.3-14
gdm => etch 2.16.4-1 lenny 2.20.7-4lenny1 squeeze 2.20.11-4 wheezy 2.20.11-4
gem2deb => oldoldstable 0.3.0 oldstable 0.10 oldstable-kfreebsd 0.10 jessie-backports 0.33.1~bpo8+1 stable 0.33.1 stretch-backports 0.37~bpo9+1 unstable 0.39 testing 0.39
genisoimage => squeeze 9:1.1.11-1 wheezy 9:1.1.11-2 wheezy 9:1.1.11-2+b1 jessie-kfreebsd 9:1.1.11-3 jessie 9:1.1.11-3 stretch 9:1.1.11-3 sid 9:1.1.11-3 jessie 9:1.1.11-3+b1 stretch 9:1.1.11-3+b1 sid 9:1.1.11-3+b1
gnome-keyring => squeeze 2.30.3-5 wheezy 3.4.1-5 sid 3.12.2-1 jessie 3.14.0-1+b1 sid 3.14.0-1+b1
hal => lenny 0.5.11-8 squeeze 0.5.14-3 wheezy 0.5.14-5 sid 0.5.14-5
imagemagick => oldstable 8:6.7.7.10-5+deb7u4 stable 8:6.8.9.9-5+deb8u8 testing 8:6.9.7.4+dfsg-6 buildd-unstable 8:6.9.7.4+dfsg-8 unstable 8:6.9.7.4+dfsg-8
init-system-helpers => wheezy-backports 1.18~bpo70+1 oldstable-kfreebsd 1.22 oldstable 1.22 stable 1.48 testing 1.55 unstable 1.55
intltool => squeeze 0.41.1-1 wheezy 0.50.2-2 jessie 0.50.2-2 sid 0.50.2-2
jellyfish => oldoldstable 2.1.4-1 oldstable 2.2.6-1+b1 stable 2.2.10-2 unstable 2.2.10-2 testing 2.2.10-2
libaliased-perl => oldoldstable 0.30-1 oldstable-kfreebsd 0.31-1 oldstable 0.31-1 stable 0.34-1 testing 0.34-1 unstable 0.34-1
libalien-wxwidgets-perl => lenny 0.37-1 squeeze 0.50+dfsg-1 wheezy 0.54+dfsg-1 sid 0.54+dfsg-1
libatk1.0-dev => lenny 1.22.0-1 backports/lenny 1.30.0-1~bpo50+1 squeeze 1.30.0-1 wheezy 2.2.0-2 sid 2.2.0-2 wheezy 2.2.0-2+b1 sid 2.2.0-2+b1 experimental 2.3.93-1
libburn-doc => oldoldstable 1.3.2-1.1 oldstable 1.4.6-1 testing 1.5.0-1 unstable 1.5.0-1 stable 1.5.0-1
libburn4 => oldoldstable 1.3.2-1.1 oldstable 1.4.6-1 testing 1.5.0-1 unstable 1.5.0-1 stable 1.5.0-1
libbz2-dev => oldoldstable 1.0.6-4 oldstable-kfreebsd 1.0.6-7+b3 oldstable 1.0.6-7+b3 stable 1.0.6-8.1 testing 1.0.6-8.1 unstable 1.0.6-8.1
libcairo-perl => lenny 1.060-1 squeeze 1.070-1 wheezy 1.090-1 sid 1.090-1
libcam-dev => oldoldstable 9.0+ds1-4 oldstable-kfreebsd 10.1~svn273304-1 unstable 10.3~svn296373-10
libclass-isa-perl => wheezy 0.36-3 sid 0.36-3
libcompress-raw-zlib-perl => squeeze 2.026-1 wheezy 2.052-1 sid 2.055-1
libconfig-model-cursesui-perl => squeeze 1.103-1 wheezy 1.104-1 sid 1.104-1
libconfig-model-perl => squeeze 1.205-1 wheezy 1.244-1 sid 1.247-1
libconfig-model-tkui-perl => squeeze 1.310-1 wheezy 1.324-1 sid 1.324-1
libcpan-meta-perl => squeeze 2.101670-1 sid 2.102400-1
libdata-types-perl => squeeze 0.08-1 wheezy 0.09-1 sid 0.09-1
libdatetime-format-duration-perl => oldoldstable 1.03a-1 oldstable-kfreebsd 1.03a-1 oldstable 1.03a-1 unstable 1.03a-1.2 testing 1.03a-1.2 stable 1.03a-1.2
libdbus-1-dev => squeeze 1.2.24-4+squeeze2 squeeze-lts 1.2.24-4+squeeze3 wheezy 1.6.8-1+deb7u5 wheezy-p-u 1.6.8-1+deb7u6 wheezy-security 1.6.8-1+deb7u6 jessie 1.8.16-1 sid 1.8.16-1 experimental 1.9.14-1
libdist-zilla-perl => squeeze 4.101900-1 sid 4.200000-1
libdmx-dev => etch 1:1.0.2-2 lenny 1:1.0.2-3 squeeze 1:1.1.0-2 wheezy 1:1.1.1-1 sid 1:1.1.1-1
libextutils-depends-perl => lenny 0.300-1 squeeze 0.301-1 wheezy 0.304-1 sid 0.304-1
libextutils-pkgconfig-perl => lenny 1.11-1 squeeze 1.12-1 wheezy 1.12-1 sid 1.12-1
libextutils-xspp-perl => backports/lenny 0.05-1~bpo50+1 squeeze 0.14-1 wheezy 0.1602-3 sid 0.1602-3
libfile-homedir-perl => lenny 0.64-1.1 squeeze 0.86-1 sid 0.93-2
libfile-slurp-perl => etch 9999.09-1 lenny 9999.12-2 squeeze 9999.13-1 wheezy 9999.16-1 sid 9999.16-1
libfltk1.1-dev => etch 1.1.7-3 lenny 1.1.9-6 squeeze 1.1.10-2+b1 wheezy 1.1.10-4 sid 1.1.10-4 wheezy 1.1.10-4+b1 sid 1.1.10-4+b1
libfontconfig1-dev => lenny 2.6.0-3 backports/lenny 2.8.0-2~bpo50+1 squeeze 2.8.0-2.1 wheezy 2.8.0-3.1 sid 2.8.0-3.1
libfontenc-dev => etch 1:1.0.2-2 lenny 1:1.0.4-3 squeeze 1:1.0.5-2 wheezy 1:1.1.0-1 sid 1:1.1.0-1
libfoo => 
libfreetype6-dev => lenny-security 2.3.7-2+lenny8 lenny 2.3.7-2+lenny8 squeeze 2.4.2-2.1+squeeze3 squeeze-p-u 2.4.2-2.1+squeeze4 squeeze-security 2.4.2-2.1+squeeze4 backports/squeeze 2.4.4-1~bpo60+1 wheezy 2.4.8-1 sid 2.4.8-1 wheezy 2.4.8-1+b1 sid 2.4.8-1+b1
libfs-dev => etch 2:1.0.0-4 lenny 2:1.0.1-1 squeeze 2:1.0.2-1 squeeze 2:1.0.2-1+b1 wheezy 2:1.0.3-1 sid 2:1.0.3-1
libgdk-pixbuf2.0-dev => wheezy 2.24.1-1 sid 2.24.1-1 experimental 2.25.2-1
libgl1 => 
libgl1-mesa-dev => etch 6.5.1-0.6 lenny 7.0.3-7 squeeze 7.7.1-4 wheezy 7.7.1-4 sid 7.10-4
libgl1-mesa-dri => etch 6.5.1-0.6 lenny 7.0.3-7 squeeze 7.7.1-4 wheezy 7.7.1-4 sid 7.10-4
libgl1-mesa-glx => etch 6.5.1-0.6 lenny 7.0.3-7 squeeze 7.7.1-4 wheezy 7.7.1-4 sid 7.10-4
libglib-perl => lenny 1:1.190-2 squeeze 2:1.223-1 backports/squeeze 2:1.242-1~bpo60+1 wheezy 2:1.242-1 sid 2:1.242-1
libglib2.0-dev => lenny-security 2.16.6-1+lenny1 lenny 2.16.6-3 backports/lenny 2.22.4-1~bpo50+1 backports/lenny 2.24.2-1~bpo50+1 squeeze 2.24.2-1 wheezy 2.30.2-6 sid 2.30.2-6 experimental 2.31.20-1
libglu1-mesa => etch 6.5.1-0.6 lenny 7.0.3-7 squeeze 7.7.1-4 wheezy 7.7.1-4 sid 7.10-4
libglu1-mesa-dev => etch 6.5.1-0.6 lenny 7.0.3-7 squeeze 7.7.1-4 wheezy 7.7.1-4 sid 7.10-4
libgmime-2.6-dev => squeeze-backports 2.6.7-1~bpo60+1 wheezy 2.6.10-1 jessie 2.6.20-1+b1 sid 2.6.20-1+b1
libgnome-keyring-dev => squeeze 2.30.1-1 wheezy 3.4.1-1 sid 3.12.0-1 jessie 3.12.0-1+b1 sid 3.12.0-1+b1
libgnustep-gui-dev => oldstable 0.20.0-3+b1 stable 0.24.0-3 testing 0.25.0-4+b1 unstable 0.25.0-4+b1
libgsl-dev => jessie-backports 2.3+dfsg-1~bpo8+3 stable 2.3+dfsg-1 testing 2.4+dfsg-6 unstable 2.4+dfsg-6 testing 2.4+dfsg-6+b1 unstable 2.4+dfsg-6+b1
libgtk2.0-dev => lenny 2.12.12-1~lenny2 backports/lenny 2.18.6-1~bpo50+1 backports/lenny 2.20.1-2~bpo50+1 squeeze 2.20.1-2 wheezy 2.24.10-1 sid 2.24.10-1
libgtkspell-dev => squeeze 2.0.16-1 wheezy 2.0.16-1 jessie 2.0.16-1.1 sid 2.0.16-1.1
libhts-dev => oldstable 1.1-1 oldstable-kfreebsd 1.1-1 jessie-backports 1.3.2-2~bpo8+1 stable 1.3.2-2 unstable 1.5-6 unstable 1.7-2 testing 1.7-2
libice-dev => etch 1:1.0.1-2 lenny 2:1.0.4-1 squeeze 2:1.0.6-2 wheezy 2:1.0.7-1 sid 2:1.0.7-1
libio-pty-perl => oldoldstable 1:1.08-1 oldstable 1:1.08-1 oldstable 1:1.08-1+b1 oldoldstable 1:1.08-1+b2 oldstable 1:1.08-1+b2 oldstable-kfreebsd 1:1.08-1+b4 oldstable 1:1.08-1+b4 stable 1:1.08-1.1+b2 unstable 1:1.08-1.1+b4 testing 1:1.08-1.1+b4
libjellyfish-2.0-2 => oldoldstable 2.1.4-1 oldstable 2.2.6-1+b1 unstable 2.2.10-2 testing 2.2.10-2 stable 2.2.10-2
libjpeg62-dev => etch 6b-13 lenny 6b-14 squeeze 6b1-1 wheezy 6b1-1 sid 6b1-1
liblog-log4perl-perl => etch 1.07-1 lenny 1.16-1 squeeze 1.29-1 wheezy 1.29-1 sid 1.29-1
liblog4cpp5 => jessie-kfreebsd 1.0-4 squeeze 1.0-4 wheezy 1.0-4 jessie 1.0-4
liblzma-dev => oldoldstable 5.1.1alpha+20120614-2 oldstable-kfreebsd 5.1.1alpha+20120614-2+b3 oldstable 5.1.1alpha+20120614-2+b3 stable 5.2.2-1.2+b1 testing 5.2.2-1.3 unstable 5.2.2-1.3
libmodule-build-perl => etch 0.26-1 backports/etch 0.2808.01-2~bpo40+1 lenny 0.2808.01-2 squeeze 0.360700-1 wheezy 0.380000-1 sid 0.380000-1
libmodule-build-tiny-perl => oldstable-kfreebsd 0.039-1 testing 0.039-1 oldstable 0.039-1 unstable 0.039-1 stable 0.039-1
libmoose-autobox-perl => squeeze 0.11-1 sid 0.11-1
libmoose-perl => lenny 0.54-1 backports/lenny 1.05-1~bpo50+1 squeeze 1.09-2 sid 1.21-1
libnamespace-autoclean-perl => squeeze 0.09-1 wheezy 0.12-2 sid 0.12-2
libnotify-dev => squeeze 0.5.0-2 wheezy 0.7.5-1 jessie 0.7.6-2 sid 0.7.6-2
libpango1.0-dev => lenny-security 1.20.5-3+lenny1 lenny-security 1.20.5-5+lenny1 lenny 1.20.5-6 squeeze-security 1.28.3-1+squeeze2 squeeze 1.28.3-1+squeeze2 wheezy 1.29.4-2 sid 1.29.4-2 wheezy 1.29.4-2+b1 sid 1.29.4-2+b1
libpath-class-perl => etch 0.15-1 lenny 0.16-0.1 squeeze 0.19-1 wheezy 0.23-1 sid 0.23-1
libpng-dev => experimental 1.5.7-2 experimental 1.5.9-1
libpng12-dev => etch-security 1.2.15~beta5-1+etch2 etch 1.2.15~beta5-1+etch2 lenny-security 1.2.27-2+lenny4 lenny 1.2.27-2+lenny4 squeeze 1.2.44-1 wheezy 1.2.44-2 sid 1.2.44-2
libsdl-gfx1.2-dev => etch 2.0.13-2+b1 lenny 2.0.13-4 squeeze 2.0.20-1.1 wheezy 2.0.22-1 sid 2.0.22-1
libsdl-image1.2-dev => etch-security 1.2.5-2+etch1 etch 1.2.5-2+etch1 lenny 1.2.6-3 squeeze 1.2.10-2+b1 squeeze 1.2.10-2+b2 wheezy 1.2.10-2.1 sid 1.2.10-2.1
libsdl-mixer1.2-dev => etch 1.2.6-1.1+b1 etch 1.2.6-1.1+b2 etch 1.2.6-1.1+b3 lenny 1.2.8-4 squeeze 1.2.8-6.3 wheezy 1.2.8-6.3 sid 1.2.8-6.3
libsdl-net1.2-dev => etch 1.2.5-7+b1 lenny 1.2.7-2 squeeze 1.2.7-2 wheezy 1.2.7-2 sid 1.2.7-2
libsdl-ttf2.0-dev => etch 2.0.8-3+b1 lenny 2.0.9-1 squeeze 2.0.9-1 wheezy 2.0.9-1 sid 2.0.9-1 sid 2.0.9-1+b1
libsdl1.2-dev => etch 1.2.11-8 lenny 1.2.13-2 lenny 1.2.13-2+b1 squeeze 1.2.14-6.1 wheezy 1.2.14-6.4 sid 1.2.14-6.4
libsm-dev => etch 1:1.0.1-3 lenny 2:1.0.3-2 squeeze 2:1.1.1-1 wheezy 2:1.2.0-1 sid 2:1.2.0-1
libtest-pod-coverage-perl => squeeze 1.08-3 wheezy 1.08-3 sid 1.08-3
libtest-pod-perl => etch 1.24-1 lenny 1.26-2 squeeze 1.42-1 wheezy 1.44-1 sid 1.44-1
libtest-simple-perl => etch 0.62-1 lenny 0.80-1 backports/lenny 0.94-1~bpo50+1 squeeze 0.94-1 wheezy 0.98-1 sid 0.98-1
libtiff4 => lenny-security 3.8.2-11.5 lenny 3.8.2-11.5 squeeze-security 3.9.4-5+squeeze3 squeeze 3.9.4-5+squeeze3 wheezy 3.9.6-1 sid 3.9.6-1
libtry-tiny-perl => oldoldstable 0.11-1 wheezy-backports 0.20-1~bpo70+1 oldstable 0.22-1 oldstable-kfreebsd 0.22-1 unstable 0.28-1 testing 0.28-1 stable 0.28-1
libuv0.10-dev => oldoldoldstable 0.10.28-6
libversion-perl => etch 0.6701-1 squeeze 1:0.8200-1 wheezy 1:0.9000-1 sid 1:0.9000-1
libwx-perl => squeeze 0.9702-1 wheezy 1:0.9904-1 sid 1:0.9904-1
libx11-dev => etch 2:1.0.3-7 lenny 2:1.1.5-2 squeeze 2:1.3.3-4 wheezy 2:1.4.1-5 sid 2:1.4.1-5
libxau-dev => etch 1:1.0.1-2 lenny 1:1.0.3-3 squeeze 1:1.0.6-1 wheezy 1:1.0.6-1 sid 1:1.0.6-1
libxaw7-dev => etch 1:1.0.2-4 lenny 2:1.0.4-2 squeeze 2:1.0.7-1 wheezy 2:1.0.9-2 sid 2:1.0.9-2
libxcomposite-dev => etch 1:0.3-3 lenny 1:0.4.0-3 squeeze 1:0.4.2-1 wheezy 1:0.4.3-1 sid 1:0.4.3-1
libxcursor-dev => etch 1.1.7-4 lenny 1:1.1.9-1 squeeze 1:1.1.10-2 wheezy 1:1.1.11-1 sid 1:1.1.11-1
libxdamage-dev => etch 1:1.0.3-3 lenny 1:1.1.1-4 squeeze 1:1.1.3-1 wheezy 1:1.1.3-1 sid 1:1.1.3-1
libxdmcp-dev => etch 1:1.0.1-2 lenny 1:1.0.2-3 squeeze 1:1.0.3-2 wheezy 1:1.1.0-1 sid 1:1.1.0-1
libxext-dev => etch 1:1.0.1-2 lenny 2:1.0.4-2 squeeze 2:1.1.2-1 wheezy 2:1.2.0-2 sid 2:1.2.0-2
libxfixes-dev => etch 1:4.0.1-5 lenny 1:4.0.3-2 squeeze 1:4.0.5-1 wheezy 1:4.0.5-1 sid 1:4.0.5-1 experimental 1:5.0-1
libxfont-dev => etch-security 1:1.2.2-2.etch1 etch 1:1.2.2-2.etch1 lenny 1:1.3.3-1 squeeze 1:1.4.1-2 wheezy 1:1.4.3-2 sid 1:1.4.3-2
libxft-dev => etch 2.1.8.2-8 lenny 2.1.12-3 squeeze 2.1.14-2 wheezy 2.2.0-2 sid 2.2.0-2
libxi-dev => etch 1:1.0.1-4 lenny 2:1.1.4-1 squeeze 2:1.3-6 wheezy 2:1.4.1-1 sid 2:1.4.1-1
libxinerama-dev => etch 1:1.0.1-4.1 lenny 2:1.0.3-2 squeeze 2:1.1-3 wheezy 2:1.1.1-1 sid 2:1.1.1-1
libxkbfile-dev => etch 1:1.0.3-2 lenny 1:1.0.5-1 squeeze 1:1.0.6-2 wheezy 1:1.0.7-1 sid 1:1.0.7-1
libxmu-dev => etch 1:1.0.2-2 lenny 2:1.0.4-1 squeeze 2:1.0.5-2 wheezy 2:1.1.0-1 sid 2:1.1.0-1
libxmuu-dev => etch 1:1.0.2-2 lenny 2:1.0.4-1 squeeze 2:1.0.5-2 wheezy 2:1.1.0-1 sid 2:1.1.0-1
libxpm-dev => etch 1:3.5.5-2 lenny 1:3.5.7-1 squeeze 1:3.5.8-1 wheezy 1:3.5.9-1 sid 1:3.5.9-1
libxrandr-dev => etch 2:1.1.0.2-5 lenny 2:1.2.3-1 squeeze 2:1.3.0-3 wheezy 2:1.3.1-1 sid 2:1.3.1-1
libxrender-dev => etch 1:0.9.1-3 lenny 1:0.9.4-2 squeeze 1:0.9.6-1 wheezy 1:0.9.6-1 sid 1:0.9.6-1
libxres-dev => etch 2:1.0.1-2 lenny 2:1.0.3-1 squeeze 2:1.0.4-1 wheezy 2:1.0.5-1 sid 2:1.0.5-1
libxss-dev => etch 1:1.1.0-1 lenny 1:1.1.3-1 squeeze 1:1.2.0-2 wheezy 1:1.2.1-1 sid 1:1.2.1-1
libxt-dev => etch 1:1.0.2-2 lenny 1:1.0.5-3 squeeze 1:1.0.7-1 wheezy 1:1.1.1-1 sid 1:1.1.1-1
libxtst-dev => etch 1:1.0.1-5 lenny 2:1.0.3-1 squeeze 2:1.1.0-3 wheezy 2:1.2.0-1 sid 2:1.2.0-1 experimental 2:1.2.0-2
libxv-dev => etch 1:1.0.2-1 lenny 2:1.0.4-1 squeeze 2:1.0.5-1 wheezy 2:1.0.6-1 sid 2:1.0.6-1
libxvmc-dev => etch 1:1.0.2-2 lenny 1:1.0.4-2 squeeze 2:1.0.5-1 wheezy 2:1.0.6-1 sid 2:1.0.6-1
libxxf86dga-dev => etch 2:1.0.1-2 lenny 2:1.0.2-1 squeeze 2:1.1.1-2 wheezy 2:1.1.2-1 sid 2:1.1.2-1
libxxf86vm-dev => etch 1:1.0.1-2 lenny 1:1.0.2-1 squeeze 1:1.1.0-2 wheezy 1:1.1.1-1 sid 1:1.1.1-1
libyaml-perl => etch 0.62-1 lenny 0.66-1 squeeze 0.71-1 wheezy 0.73-1 sid 0.73-1
lsb-base => lenny 3.2-20 squeeze-p-u 3.2-23.2squeeze1 squeeze 3.2-23.2squeeze1 sid 3.2-27
makedev => squeeze 2.3.1-89 wheezy 2.3.1-92 jessie 2.3.1-92 sid 2.3.1-93
mingw-w64-i686-dev => oldstable 2.0.3-1 stable 3.2.0-2 unstable 4.0.5-2 experimental 5.0~rc2-1
mingw-w64-x86-64-dev => oldstable 2.0.3-1 stable-kfreebsd 3.2.0-2 testing 4.0.5-2 experimental 5.0~rc2-1
mocha => oldstable-kfreebsd 1.20.1-1 oldstable 1.20.1-1 stable 1.20.1-7 testing 4.1.0+ds3-3 unstable 4.1.0+ds3-5
mummer => oldoldstable 3.23~dfsg-2 oldstable 3.23~dfsg-2 oldstable-kfreebsd 3.23~dfsg-2 stable 3.23+dfsg-2 testing 3.23+dfsg-3 unstable 3.23+dfsg-3
muscle => etch 3.60-1 lenny 3.70+fix1-2 squeeze 3.70+fix1-2 wheezy 3.70+fix1-2 sid 3.70+fix1-2
mysql-server => squeeze-security 5.1.73-1 squeeze 5.1.73-1 squeeze-lts 5.1.73-1+deb6u1 jessie-kfreebsd 5.5.42-1 jessie-kfreebsd-p-u 5.5.43-0+deb8u1 wheezy-security 5.5.44-0+deb7u1 wheezy 5.5.44-0+deb7u1 jessie-kfreebsd-security 5.5.44-0+deb8u1 jessie-security 5.5.44-0+deb8u1 jessie 5.5.44-0+deb8u1 stretch 5.6.25-4 sid 5.6.25-4
node-generic-pool => oldstable-kfreebsd 2.0.3-1 oldstable 2.0.3-1 unstable 3.1.1-1 stable 3.1.1-1 testing 3.1.1-1
node-marked-man => stable 0.2.0-1 unstable 0.4.0-1 testing 0.4.0-1
node-mime-types => oldstable-kfreebsd 2.0.2-1 oldstable 2.0.2-1 stable 2.0.2-2 stretch-backports 2.1.20-1~bpo9+1 testing 2.1.21-1 unstable 2.1.21-1
node-mkdirp => oldstable-kfreebsd 0.5.0-1 oldstable 0.5.0-1 stable 0.5.0-1 stretch-backports 0.5.1-1~bpo9+1 unstable 0.5.1-1 testing 0.5.1-1
node-optimist => oldstable-kfreebsd 0.3.5-1 oldstable 0.3.5-1 unstable 0.6.1-1 testing 0.6.1-1 stable 0.6.1-1
node-request => stable 2.26.1-1 oldstable 2.26.1-1 oldstable-kfreebsd 2.26.1-1 stretch-backports 2.88.1-2~bpo9+1 testing 2.88.1-2 unstable 2.88.1-2
node-sqlite3 => oldstable 2.2.0+ds1-1 oldstable-kfreebsd 2.2.0+ds1-1 stable 3.1.8+ds1-2 unstable 3.1.8+ds1-2+b1 testing 4.0.6+ds1-2 unstable 4.0.6+ds1-2
node-srs => oldstable 0.3.2+ds1-1+b1 oldstable-kfreebsd 0.3.2+ds1-1+b1 stable 0.4.8+dfsg-3 unstable 0.4.8+dfsg-3+b2 testing 0.4.8+dfsg-4 unstable 0.4.8+dfsg-4
node-step => oldstable 0.0.5+20111229-1 testing 0.0.5+20111229-1 stable 0.0.5+20111229-1 unstable 0.0.5+20111229-1 oldstable-kfreebsd 0.0.5+20111229-1
node-underscore => oldstable-kfreebsd 1.7.0~dfsg-1 oldstable 1.7.0~dfsg-1 jessie-backports 1.8.3~dfsg-1~bpo8+1 stable 1.8.3~dfsg-1 testing 1.8.3~dfsg-2 unstable 1.9.1~dfsg-1
node-zipfile => oldstable 0.5.0+ds-1 oldstable-kfreebsd 0.5.0+ds-1 unstable 0.5.11+ds-2+b1 testing 0.5.12+ds-3 unstable 0.5.12+ds-3
nodejs => wheezy-backports 0.10.29~dfsg-1~bpo70+1 oldstable 0.10.29~dfsg-2 oldstable-kfreebsd 0.10.29~dfsg-2 unstable 4.6.1~dfsg-1 jessie-backports 4.7.2~dfsg-2~bpo8+1 jessie-backports 4.8.2~dfsg-1~bpo8+1 stable 4.8.2~dfsg-1 stretch-backports 8.11.1~dfsg-2~bpo9+1 unstable 10.15.1~dfsg-5 testing 10.15.1~dfsg-5
opennebula => squeeze-backports 2.0.1-6~bpo60+1 wheezy 3.4.1-3.1 stretch 4.12.3+dfsg-3 sid 4.12.3+dfsg-3
opennebula-common => squeeze-backports 2.0.1-6~bpo60+1 wheezy 3.4.1-3.1 stretch 4.12.3+dfsg-3 sid 4.12.3+dfsg-3
opennebula-dbg => 
opennebula-ozones => 
opennebula-tools => wheezy 3.4.1-3.1 stretch 4.12.3+dfsg-3 sid 4.12.3+dfsg-3
openrc => oldstable 0.13.1-4 oldstable-kfreebsd 0.13.1-4 stable 0.23-1+b1 unstable 0.34-3 unstable 0.39-1 testing 0.39-1
perl => etch-security 5.8.8-7etch6 etch 5.8.8-7etch6 lenny 5.10.0-19lenny3 lenny-security 5.10.0-19lenny5 squeeze 5.10.1-17squeeze1 squeeze-security 5.10.1-17squeeze2 sid 5.12.3-6 wheezy 5.12.3-7 wheezy 5.12.3-7+b1 sid 5.12.4-1 experimental 5.14.0-1
perl-base => oldoldstable 5.14.2-21+deb7u3 oldstable-kfreebsd 5.20.2-3 oldstable-kfreebsd-proposed-updates 5.20.2-3+deb8u3+kbsd1 oldstable 5.20.2-3+deb8u11 stable 5.24.1-3+deb9u4 testing 5.28.0-3 unstable 5.28.0-3
perl-modules => etch-security 5.8.8-7etch6 etch 5.8.8-7etch6 lenny 5.10.0-19lenny3 lenny-security 5.10.0-19lenny5 squeeze 5.10.1-17squeeze1 squeeze-p-u 5.10.1-17squeeze2 squeeze-security 5.10.1-17squeeze2 wheezy 5.12.4-4 sid 5.12.4-4 experimental 5.14.0-1 experimental 5.14.1-2
phyml => squeeze 2:20100123-1 wheezy 2:20100720-1 sid 2:20100720-1
pkg-config => oldoldstable 0.28-1 oldstable 0.29-4+b1 testing 0.29-6 unstable 0.29-6 stable 0.29-6
po-debconf => etch 1.0.8 lenny 1.0.15 squeeze 1.0.16+nmu1 wheezy 1.0.16+nmu1 sid 1.0.16+nmu1
primer3 => oldoldstable 2.2.3-1 oldstable 2.3.6-1 oldstable-kfreebsd 2.3.6-1 stable 2.3.7-3 testing 2.3.7-4 unstable 2.4.0-1
procps => oldoldstable 2:3.3.9-9+deb8u1 oldstable 2:3.3.12-3+deb9u1 stable 2:3.3.15-2 testing 2:3.3.15-2 unstable 2:3.3.15-2
python => oldoldstable 2.7.3-4+deb7u1 oldstable 2.7.9-1 oldstable-kfreebsd 2.7.9-1 stable 2.7.13-2 testing 2.7.14-4 unstable 2.7.14-4 unstable 2.7.15~rc1-1 buildd-unstable 2.7.15~rc1-1
python-all-dev => oldstable 2.7.3-4+deb7u1 stable 2.7.9-1 testing 2.7.11-2 unstable 2.7.13-1
python-matplotlib => oldoldstable 1.1.1~rc2-1 oldstable-kfreebsd 1.4.2-3.1 oldstable 1.4.2-3.1 unstable 1.5.3-1 stable 2.0.0+dfsg1-2 unstable 2.0.0+dfsg1-2+b1 testing 2.1.1-2 unstable 2.1.1-2 unstable 2.1.1-2.1 unstable 2.2.2-1
python-nose => oldstable 1.1.2-3 stable-kfreebsd 1.3.4-1 stable 1.3.4-1 jessie-backports 1.3.7-1~bpo8+1 testing 1.3.7-2 unstable 1.3.7-2
python-numpy => oldstable 1:1.6.2-1.2 stable 1:1.8.2-2 unstable 1:1.12.0~b1-1 testing 1:1.12.0~b1-1
python-setuptools => oldstable 0.6.24-1 stable-kfreebsd 5.5.1-1 stable 5.5.1-1 jessie-backports 20.10.1-1.1~bpo8+1 testing 32.0.0-1 unstable 32.0.0-1
python3-all-dev => oldstable 3.2.3-6 stable 3.4.2-2 testing 3.5.1-4 unstable 3.5.1-4
python3-docutils => oldoldstable 0.8.1-8 oldstable 0.12+dfsg-1 oldstable-kfreebsd 0.12+dfsg-1 stable 0.13.1+dfsg-2 unstable 0.14+dfsg-3 testing 0.14+dfsg-3
python3-nose => oldstable 1.1.2-3 stable-kfreebsd 1.3.4-1 stable 1.3.4-1 jessie-backports 1.3.7-1~bpo8+1 testing 1.3.7-2 unstable 1.3.7-2
python3-numpy => oldstable 1:1.6.2-1.2 stable 1:1.8.2-2 testing 1:1.12.0~b1-1 unstable 1:1.12.0~b1-1
python3-setuptools => oldstable 0.6.24-1 stable 5.5.1-1 stable-kfreebsd 5.5.1-1 jessie-backports 20.10.1-1.1~bpo8+1 unstable 32.0.0-1 testing 32.0.0-1
quilt => etch 0.45-6 backports/etch 0.46-6~bpo40+1 lenny 0.46-6 backports/lenny 0.46-8~bpo50+1 squeeze 0.48-7 wheezy 0.48-7 sid 0.48-8
rake => oldoldstable 0.9.2.2-4 oldstable-kfreebsd 10.3.2-2 oldstable 10.3.2-2 stable 10.5.0-2 stretch-backports 12.3.1-1~bpo9+1 unstable 12.3.1-3 testing 12.3.1-3
rakudo => wheezy 0.1~2012.01-1 jessie-kfreebsd 2014.07-4 jessie 2014.07-4 stretch 2014.07-4+b1 sid 2015.09-2
ruby => oldoldstable 1:1.9.3 oldstable-kfreebsd 1:2.1.5 oldstable 1:2.1.5+deb8u2 stable 1:2.3.3 testing 1:2.5.1 unstable 1:2.5.1
ruby-opennebula => wheezy 3.4.1-3.1 stretch 4.12.3+dfsg-3 sid 4.12.3+dfsg-3
samtools => oldoldstable 0.1.18-1 wheezy-backports 0.1.19-1~bpo70+1 oldstable-kfreebsd 0.1.19-1 oldstable 0.1.19-1 jessie-backports 1.3.1-2~bpo8+1 stable 1.3.1-3 unstable 1.5-1 unstable 1.7-2 testing 1.7-2
scons => squeeze 2.0.0-1 squeeze-backports 2.1.0-1~bpo60+1 wheezy 2.1.0-1 wheezy-backports 2.3.1-1~bpo70+1 jessie-kfreebsd 2.3.1-2 jessie 2.3.1-2 stretch 2.3.6-1 sid 2.3.6-1
swig => oldoldstable 2.0.12-1 oldstable 3.0.10-1.1 stable 3.0.12-2 testing 3.0.12-2 unstable 3.0.12-2
systemd => oldoldstable 44-11+deb7u4 wheezy-backports 204-14~bpo70+1 oldstable 215-17+deb8u7 jessie-backports 230-7~bpo8+2 jessie-backports 230-7~bpo8+2+b1 stable 232-25+deb9u4 proposed-updates 232-25+deb9u6 stretch-backports 237-3~bpo9+1 stretch-backports 239-11~bpo9+1 unstable 239-11 testing 239-11
sysv-rc => oldoldstable 2.88dsf-41+deb7u1 oldstable-kfreebsd 2.88dsf-59 oldstable 2.88dsf-59 stable 2.88dsf-59.9 unstable 2.88dsf-59.11 testing 2.88dsf-59.11 experimental 2.88dsf-60
sysvinit-utils => oldoldstable 2.88dsf-41+deb7u1 oldstable 2.88dsf-59 oldstable-kfreebsd 2.88dsf-59 stable 2.88dsf-59.9 unstable 2.88dsf-59.11 testing 2.88dsf-59.11 experimental 2.88dsf-60
tabix => oldoldstable 0.2.6-1 oldstable 0.2.6-2 oldstable-kfreebsd 1.1-1 oldstable 1.1-1 jessie-backports 1.3.2-2~bpo8+1 stable 1.3.2-2 unstable 1.5-6 testing 1.7-2 unstable 1.7-2
texlive-latex-recommended => oldoldstable 2012.20120611-5 oldstable-kfreebsd 2014.20141024-2 oldstable 2014.20141024-2+deb8u1 stable 2016.20170123-5 testing 2017.20180305-1 unstable 2018.20180416-1
time => oldoldstable 1.7-25 stable 1.7-25.1+b1 unstable 1.7-25.1+b1 testing 1.7-25.1+b1 oldstable 1.7-25.1+b1
ttf-freefont => etch 20060501cvs-10 lenny 20080323-3 squeeze 20090104-7 wheezy 20100919-1 sid 20100919-1
udev => squeeze 164-3 wheezy 175-7.2 jessie 175-7.2 sid 175-7.2
x-common => 
x-terminal-emulator => 
x11-apps => lenny 7.3+4 squeeze 7.5+5 wheezy 7.6+4 sid 7.6+4
x11-common => etch 1:7.1.0-19 lenny 1:7.3+20 squeeze 1:7.5+8 wheezy 1:7.5+8 sid 1:7.6+4
x11-session-utils => lenny 7.3+1 squeeze 7.5+1 wheezy 7.6+1 sid 7.6+1
x11-utils => lenny 7.3+2+nmu1 squeeze 7.5+4 wheezy 7.6+1 sid 7.6+1
x11-xfs-utils => lenny 7.3+1 squeeze 7.4+1 wheezy 7.6+1 sid 7.6+1
x11-xkb-utils => lenny 7.4+1 squeeze 7.5+5 wheezy 7.6+2 sid 7.6+2
x11-xserver-utils => lenny 7.3+5 squeeze 7.5+2 wheezy 7.6+1 sid 7.6+1
x11proto-bigreqs-dev => etch 1.0.2-4 lenny 1:1.0.2-5 squeeze 1:1.1.0-1 wheezy 1:1.1.1-1 sid 1:1.1.1-1
x11proto-composite-dev => etch 0.3.1-2 lenny 1:0.4-2 squeeze 1:0.4.1-1 wheezy 1:0.4.2-1 sid 1:0.4.2-1
x11proto-core-dev => etch 7.0.7-2 backports/etch 7.0.12-1~bpo40+1 lenny 7.0.12-1 squeeze 7.0.16-1 wheezy 7.0.20-1 sid 7.0.20-1
x11proto-damage-dev => etch 1.0.3-4 lenny 1.1.0-2 squeeze 1:1.2.0-1 wheezy 1:1.2.1-1 sid 1:1.2.1-1
x11proto-dmx-dev => etch 2.2.2-4 lenny 1:2.2.2-5 squeeze 1:2.3-2 wheezy 1:2.3.1-1 sid 1:2.3.1-1
x11proto-fixes-dev => etch 4.0-2 lenny 1:4.0-3 squeeze 1:4.1.1-2 wheezy 1:5.0-1 sid 1:5.0-1
x11proto-fonts-dev => etch 2.0.2-5 lenny 2.0.2-6 squeeze 2.1.0-1 wheezy 2.1.1-1 sid 2.1.1-1
x11proto-gl-dev => etch 1.4.8-1 lenny 1.4.9-2 squeeze 1.4.11-1 wheezy 1.4.12-1 sid 1.4.12-1
x11proto-input-dev => etch 1.3.2-4 lenny 1.4.3-2 squeeze 2.0-2 wheezy 2.0.1-1 sid 2.0.1-1
x11proto-kb-dev => etch 1.0.3-2 lenny 1.0.3-3 squeeze 1.0.4-1 wheezy 1.0.5-1 sid 1.0.5-1
x11proto-randr-dev => etch 1.1.2-4 lenny 1.2.2-1 squeeze 1.3.1-1 wheezy 1.3.2-1 sid 1.3.2-1 experimental 1.3.99.1-1
x11proto-record-dev => etch 1.13.2-4 lenny 1.13.2-5 squeeze 1.14-2 wheezy 1.14.1-1 sid 1.14.1-1
x11proto-render-dev => etch 2:0.9.2-4 lenny 2:0.9.3-2 squeeze 2:0.11-1 wheezy 2:0.11.1-1 sid 2:0.11.1-1
x11proto-resource-dev => etch 1.0.2-4 lenny 1.0.2-5 squeeze 1.1.0-1 wheezy 1.1.1-1 sid 1.1.1-1
x11proto-scrnsaver-dev => etch 1.1.0.0-1 lenny 1.1.0.0-2 squeeze 1.2.0-2 wheezy 1.2.1-1 sid 1.2.1-1
x11proto-video-dev => etch 2.2.2-4 lenny 2.2.2-5 squeeze 2.3.0-1 wheezy 2.3.1-1 sid 2.3.1-1
x11proto-xcmisc-dev => etch 1.1.2-4 lenny 1.1.2-5 squeeze 1.2.0-1 wheezy 1.2.1-1 sid 1.2.1-1
x11proto-xext-dev => etch 7.0.2-5 lenny 7.0.2-6 squeeze 7.1.1-2 wheezy 7.1.2-1 sid 7.1.2-1 experimental 7.2.0-1
x11proto-xf86bigfont-dev => etch 1.1.2-4 lenny 1.1.2-5 squeeze 1.2.0-2 wheezy 1.2.0-2 sid 1.2.0-2
x11proto-xf86dga-dev => etch 2.0.2-4 lenny 2.0.3-1 squeeze 2.1-2 wheezy 2.1-2 sid 2.1-2
x11proto-xf86dri-dev => etch 2.0.3-4 lenny 2.0.4-1 squeeze 2.1.0-1 wheezy 2.1.1-1 sid 2.1.1-1
x11proto-xf86vidmode-dev => etch 2.2.2-4 lenny 2.2.2-5 squeeze 2.3-2 wheezy 2.3.1-1 sid 2.3.1-1
x11proto-xinerama-dev => etch 1.1.2-4 lenny 1.1.2-5 squeeze 1.2-2 wheezy 1.2.1-1 sid 1.2.1-1
xauth => lenny 1:1.0.3-2 squeeze 1:1.0.4-1 wheezy 1:1.0.5-1 sid 1:1.0.5-1
xfonts-100dpi => lenny 1:1.0.0-4 squeeze 1:1.0.1 wheezy 1:1.0.3 sid 1:1.0.3
xfonts-75dpi => lenny 1:1.0.0-4 squeeze 1:1.0.1 wheezy 1:1.0.3 sid 1:1.0.3
xfonts-base => lenny 1:1.0.0-5 squeeze 1:1.0.1 wheezy 1:1.0.3 sid 1:1.0.3
xfonts-scalable => lenny 1:1.0.0-6 squeeze 1:1.0.1-1 wheezy 1:1.0.3-1 sid 1:1.0.3-1
xfonts-utils => etch 1:1.0.1-1 lenny 1:7.4+1 squeeze 1:7.5+2 wheezy 1:7.6~1 sid 1:7.6~1
xfree86-common => 
xinit => lenny 1.0.9-2 squeeze 1.2.0-2 wheezy 1.3.0-1 sid 1.3.0-1
xkb-data => lenny 1.3-2 squeeze 1.8-2 sid 1.8-2 experimental 2.1-1
xorg-common => 
xorg-docs => etch 1:1.2+git20061105-3 lenny 1:1.4-4 squeeze 1:1.5-1 wheezy 1:1.6-1 sid 1:1.6-1
xorg-docs-core => squeeze 1:1.5-1 wheezy 1:1.6-1 sid 1:1.6-1
xorriso => oldoldstable 1.3.2-1.1 oldstable 1.4.6-1+b1 stable 1.5.0-1 testing 1.5.0-1+b1 unstable 1.5.0-1+b1
xserver-common => squeeze 2:1.7.7-13 wheezy 2:1.7.7-13 sid 2:1.9.4.901-1 experimental 2:1.9.99.903-1
xserver-xfree86 => etch 1:7.1.0-19
xserver-xorg => etch 1:7.1.0-19 lenny 1:7.3+20 squeeze 1:7.5+8 wheezy 1:7.5+8 sid 1:7.6+4
xserver-xorg-core => lenny 2:1.4.2-10.lenny3 squeeze 2:1.7.7-11 wheezy 2:1.7.7-11 squeeze-p-u 2:1.7.7-13 sid 2:1.9.4-3 experimental 2:1.9.99.902-2 experimental 2:1.9.99.902-3
xserver-xorg-dev => etch-security 2:1.1.1-21etch5 etch 2:1.1.1-21etch5 lenny 2:1.4.2-10.lenny3 squeeze 2:1.7.7-13 wheezy 2:1.7.7-13 sid 2:1.9.4.901-1 experimental 2:1.9.99.903-1
xserver-xorg-driver-all => 
xserver-xorg-input-7 => 
xserver-xorg-input-all => etch 1:7.1.0-19 lenny 1:7.3+20 squeeze 1:7.5+8 wheezy 1:7.5+8 sid 1:7.6+4
xserver-xorg-input-evdev => etch 1:1.1.2-6 lenny 1:2.0.8-1 squeeze 1:2.3.2-6 wheezy 1:2.3.2-6 sid 1:2.6.0-2 experimental 1:2.6.0-3
xserver-xorg-video-6 => 
xserver-xorg-video-all => etch 1:7.1.0-19 lenny 1:7.3+20 squeeze 1:7.5+8 wheezy 1:7.5+8 sid 1:7.6+4
xterm => etch-security 222-1etch4 etch 222-1etch4 lenny-security 235-2 lenny 235-2 squeeze 261-1 wheezy 269-1 sid 269-1
xtrans-dev => etch 1.0.1-3 lenny 1.2-2 squeeze 1.2.5-1 wheezy 1.2.6-1 sid 1.2.6-1
xvfb => lenny 2:1.4.2-10.lenny4 squeeze 2:1.7.7-14 backports/squeeze 2:1.10.4-1~bpo60+1 wheezy 2:1.11.3.901-2 sid 2:1.11.3.901-2 experimental 2:1.11.99.902-1
yaggo => oldoldstable 1.5.4-1 oldstable 1.5.9-1 stable 1.5.10-2 unstable 1.5.10-2 testing 1.5.10-2
zlib1g-dev => etch 1:1.2.3-13 lenny 1:1.2.3.3.dfsg-12 squeeze 1:1.2.3.4.dfsg-3 wheezy 1:1.2.3.4.dfsg-3 sid 1:1.2.3.4.dfsg-3 experimental 1:1.2.5.dfsg-1